VDLI
…
Pastel

hchart(mpgman2 %>% filter(year==2008) , 
       "pie",
       hcaes(x = class, y = n)) %>% 
       hc_add_theme(hc_theme_538())

Grfico lineal

economics_long2 <- economics_long %>% 
  filter(variable %in% c("pop", "uempmed", "unemploy")) %>% 
  print()

## # A tibble: 1,722 x 4
##    date       variable  value value01
##    <date>     <chr>     <dbl>   <dbl>
##  1 1967-07-01 pop      198712 0      
##  2 1967-08-01 pop      198911 0.00164
##  3 1967-09-01 pop      199113 0.00330
##  4 1967-10-01 pop      199311 0.00492
##  5 1967-11-01 pop      199498 0.00646
##  6 1967-12-01 pop      199657 0.00777
##  7 1968-01-01 pop      199808 0.00901
##  8 1968-02-01 pop      199920 0.00993
##  9 1968-03-01 pop      200056 0.0110 
## 10 1968-04-01 pop      200208 0.0123 
## # ... with 1,712 more rows
…
